Accessing the SQP API
…
Aha! There it is. Then more specifically..

study_id <- find_studies("ESS Round 4")$id

find_studies is very helpful for finding patterns in the SQP database. However, if you can’t find your study, you should use get_studies() which will return all the studies in the SQP database and then perform your search manually.

Ok, so we have our study_id. Which questions are in that study? find_questions will do the work for you.

find_questions(study_id, "tv")
#> # A tibble: 129 x 5
#>       id study_id short_name country_iso language_iso
#>    <int>    <int> <chr>      <chr>       <chr>       
#>  1 66819        4 TvTot      AT          deu         
#>  2 66821        4 TvPol      AT          deu         
#>  3 66727        4 PrtVtxx    AT          deu         
#>  4  8183        4 TvTot      BE          fra         
#>  5 24064        4 TvPol      BE          fra         
#>  6 24005        4 PrtVtxx    BE          fra         
#>  7  8137        4 TvTot      BE          nld         
#>  8 27392        4 TvPol      BE          nld         
#>  9 27332        4 PrtVtxx    BE          nld         
#> 10  8275        4 TvTot      BG          bul         
#> # ... with 119 more rows

That might take a while because it’s downloading all of the data to your computer. However, if you run find_questions (or any other API related function) once, then any repetition should be instant as it loads everything from your computer rather than downloading it again.

Ok, that search was unsuccesfull, as we can see there are questions that don’t begin with tv. We can also use regular expressions to find more detailed patterns. For example, ^tv will find all questions that start (^) with tv.

tv_qs <- find_questions(study_id, "^tv")
tv_qs
#> # A tibble: 88 x 5
#>       id study_id short_name country_iso language_iso
#>    <int>    <int> <chr>      <chr>       <chr>       
#>  1 66819        4 TvTot      AT          deu         
#>  2 66821        4 TvPol      AT          deu         
#>  3  8183        4 TvTot      BE          fra         
#>  4 24064        4 TvPol      BE          fra         
#>  5  8137        4 TvTot      BE          nld         
#>  6 27392        4 TvPol      BE          nld         
#>  7  8275        4 TvTot      BG          bul         
#>  8 16155        4 TvPol      BG          bul         
#>  9 21064        4 TvTot      HR          hrv         
#> 10 21066        4 TvPol      HR          hrv         
#> # ... with 78 more rows
…
