Case-study: Correcting for measurement error in the European Social Survey • sqpr
…
selected_vars <- c("trstprl", "trstplt", "trstprt",
                   "stfedu", "stfhlth", "psppsgv",
                   "psppipl", "ptcpplt", "ppltrst",
                   "polintr", "stflife", "stfeco",
                   "agea","eisced")

composite_scores <- c("poltrst", "serv", "systmrsp")

all_vars <- c(composite_scores, selected_vars) # for using later

So far we the original tibble with a few extra columns containing the composite sum scores:

ess7es
#> # A tibble: 1,925 x 604
#>    name  essround edition proddate  idno cntry   tvtot    tvpol  ppltrst
#>    <chr>    <dbl> <chr>   <chr>    <dbl> <chr> <dbl+l> <dbl+lb> <dbl+lb>
#>  1 ESS7…        7 2.2     01.12.2…     1 ES    2 [0,5…  2 [0,5…  6 [6]  
#>  2 ESS7…        7 2.2     01.12.2…     3 ES    2 [0,5…  2 [0,5…  6 [6]  
#>  3 ESS7…        7 2.2     01.12.2…     4 ES    3 [Mor…  3 [Mor…  6 [6]  
#>  4 ESS7…        7 2.2     01.12.2…     5 ES    2 [0,5…  1 [Les…  7 [7]  
#>  5 ESS7…        7 2.2     01.12.2…     6 ES    5 [Mor…  4 [Mor… 10 [Mos…
#>  6 ESS7…        7 2.2     01.12.2…     7 ES    7 [Mor…  2 [0,5…  7 [7]  
#>  7 ESS7…        7 2.2     01.12.2…     8 ES    7 [Mor…  7 [Mor…  2 [2]  
#>  8 ESS7…        7 2.2     01.12.2…    10 ES    6 [Mor…  5 [Mor…  2 [2]  
#>  9 ESS7…        7 2.2     01.12.2…    12 ES    0 [No … NA        5 [5]  
#> 10 ESS7…        7 2.2     01.12.2…    14 ES    3 [Mor…  1 [Les…  3 [3]  
#> # … with 1,915 more rows, and 595 more variables: pplfair <dbl+lbl>,
#> #   pplhlp <dbl+lbl>, polintr <dbl+lbl>, psppsgv <dbl+lbl>,
#> #   actrolg <dbl+lbl>, psppipl <dbl+lbl>, cptppol <dbl+lbl>,
#> #   ptcpplt <dbl+lbl>, etapapl <dbl+lbl>, trstprl <dbl+lbl>,
#> #   trstlgl <dbl+lbl>, trstplc <dbl+lbl>, trstplt <dbl+lbl>,
#> #   trstprt <dbl+lbl>, trstep <dbl+lbl>, trstun <dbl+lbl>, vote <dbl+lbl>,
#> #   prtvtbat <dbl+lbl>, prtvtcbe <dbl+lbl>, prtvtech <dbl+lbl>,
#> #   prtvtdcz <dbl+lbl>, prtvede1 <dbl+lbl>, prtvede2 <dbl+lbl>,
#> #   prtvtcdk <dbl+lbl>, prtvteee <dbl+lbl>, prtvtces <dbl+lbl>,
…
