Accessing the SQP 3.0 API • sqpr
…
sqp_login(
  'This is where your email or username goes',
  'This is where your password goes'
)

Once you’ve ran sqp_login() once, you’re all set to work with the SQP 3.0 API! No need to run it again unless you close the R session.

Exploring the SQP 3.0 API

If you’re aware of the study/question/country/language that you’re searchin for, please have a look at get_sqp, a function that allows to make one single query to obtain SQP estimates. See for example here.

The SQP 3.0 API has questions nested into studies. Some of these studies/questions might be in many different languages because the SQP 3.0 community is very diverse. For that, we need to access the id’s of the study and question of interest. Let’s look for all the questions that have tv at the beginning of the word in the European Social Survey round 4. First, we need to figure out the id of that study. find_studies() accepts a string with your study of interest and it searches for similar names in the SQP 3.0 database.

find_studies("ess")
#> # A tibble: 26 x 2
#>       id name                                                                 
#>    <int> <chr>                                                                
#>  1  1206 ASSESSING THE IMPACT OF ORGANISATIONAL CULTURE ON SERVICE DELIVERY IN
#>  2  1441 Business performance                                                 
#>  3   934 ESS 2012                                                             
#>  4  1915 ESS Pilot R10                                                        
#>  5  1847 ESS R10 Pretesting                                                   
#>  6     1 ESS Round 1                                                          
#>  7  1943 ESS Round 10                                                         
#>  8     2 ESS Round 2                                                          
#>  9     3 ESS Round 3                                                          
#> 10     4 ESS Round 4                                                          
#> # … with 16 more rows

Aha! There it is. Then more specifically..

find_studies("ESS Round 4")
#> # A tibble: 1 x 2
#>      id name       
#>   <int> <chr>      
#> 1     4 ESS Round 4

find_studies is very helpful for finding patterns in the SQP 3.0 database. However, if you can’t find your study, you should use get_studies() which will return all the studies in the SQP 3.0 database and then perform your search manually.

Ok, so we know our study is there. Which questions are in that study? find_questions will do the work for you.

find_questions("ESS Round 4", "tv")
#> # A tibble: 129 x 5
#>       id study_id short_name country_iso language_iso
#>    <int>    <int> <chr>      <chr>       <chr>       
#>  1 66819        4 TvTot      AT          deu         
#>  2 66821        4 TvPol      AT          deu         
#>  3 66727        4 PrtVtxx    AT          deu         
#>  4  8183        4 TvTot      BE          fra         
#>  5 24064        4 TvPol      BE          fra         
#>  6 24005        4 PrtVtxx    BE          fra         
#>  7  8137        4 TvTot      BE          nld         
#>  8 27392        4 TvPol      BE          nld         
#>  9 27332        4 PrtVtxx    BE          nld         
#> 10  8275        4 TvTot      BG          bul         
#> # … with 119 more rows

That might take a while because it’s downloading all of the data to your computer.

Ok, that search was unsuccesfull, as we can see there are questions that don’t begin with tv. We can also use regular expressions to find more detailed patterns. For example, ^tv will find all questions that start (^) with tv.

tv_qs <- find_questions("ESS Round 4", "^tv")
tv_qs
#> # A tibble: 88 x 5
#>       id study_id short_name country_iso language_iso
#>    <int>    <int> <chr>      <chr>       <chr>       
#>  1 66819        4 TvTot      AT          deu         
#>  2 66821        4 TvPol      AT          deu         
#>  3  8183        4 TvTot      BE          fra         
#>  4 24064        4 TvPol      BE          fra         
#>  5  8137        4 TvTot      BE          nld         
#>  6 27392        4 TvPol      BE          nld         
#>  7  8275        4 TvTot      BG          bul         
#>  8 16155        4 TvPol      BG          bul         
#>  9 21064        4 TvTot      HR          hrv         
#> 10 21066        4 TvPol      HR          hrv         
#> # … with 78 more rows
…
